info face="Segoe UI" size=30 bold=0 italic=0 charset="" unicode=0 stretchH=100 smooth=1 aa=1 padding=1,1,1,1 spacing=-2,-2
common lineHeight=41 base=33 scaleW=512 scaleH=512 pages=1 packed=0
page id=0 file="Roboto_Regular_30.png"
chars count=269
char id=10      x=0    y=0    width=0    height=0    xoffset=1    yoffset=0    xadvance=0    page=0    chnl=0 
char id=32      x=0    y=0    width=0    height=0    xoffset=1    yoffset=0    xadvance=8    page=0    chnl=0 
char id=33      x=504  y=154  width=5    height=24   xoffset=1    yoffset=10   xadvance=9    page=0    chnl=0 
char id=34      x=241  y=227  width=10   height=10   xoffset=1    yoffset=10   xadvance=12   page=0    chnl=0 
char id=35      x=124  y=204  width=20   height=22   xoffset=1    yoffset=10   xadvance=18   page=0    chnl=0 
char id=36      x=206  y=68   width=14   height=30   xoffset=1    yoffset=7    xadvance=16   page=0    chnl=0 
char id=37      x=310  y=180  width=26   height=24   xoffset=1    yoffset=10   xadvance=25   page=0    chnl=0 
char id=38      x=336  y=180  width=24   height=24   xoffset=1    yoffset=10   xadvance=24   page=0    chnl=0 
char id=39      x=502  y=204  width=5    height=10   xoffset=1    yoffset=10   xadvance=7    page=0    chnl=0 
char id=40      x=272  y=68   width=9    height=29   xoffset=1    yoffset=10   xadvance=9    page=0    chnl=0 
char id=41      x=281  y=68   width=10   height=29   xoffset=1    yoffset=10   xadvance=9    page=0    chnl=0 
char id=42      x=212  y=227  width=12   height=14   xoffset=1    yoffset=10   xadvance=13   page=0    chnl=0 
char id=43      x=117  y=227  width=16   height=17   xoffset=1    yoffset=15   xadvance=21   page=0    chnl=0 
char id=44      x=251  y=227  width=6    height=10   xoffset=1    yoffset=28   xadvance=7    page=0    chnl=0 
char id=45      x=296  y=227  width=11   height=5    xoffset=1    yoffset=22   xadvance=12   page=0    chnl=0 
char id=46      x=285  y=227  width=5    height=6    xoffset=1    yoffset=28   xadvance=7    page=0    chnl=0 
char id=47      x=278  y=99   width=14   height=27   xoffset=1    yoffset=10   xadvance=12   page=0    chnl=0 
char id=48      x=424  y=180  width=16   height=23   xoffset=1    yoffset=11   xadvance=16   page=0    chnl=0 
char id=49      x=177  y=180  width=10   height=24   xoffset=1    yoffset=10   xadvance=16   page=0    chnl=0 
char id=50      x=187  y=180  width=14   height=24   xoffset=1    yoffset=10   xadvance=16   page=0    chnl=0 
char id=51      x=201  y=180  width=14   height=24   xoffset=1    yoffset=10   xadvance=16   page=0    chnl=0 
char id=52      x=215  y=180  width=17   height=24   xoffset=1    yoffset=10   xadvance=16   page=0    chnl=0 
char id=53      x=232  y=180  width=14   height=24   xoffset=1    yoffset=10   xadvance=16   page=0    chnl=0 
char id=54      x=246  y=180  width=15   height=24   xoffset=1    yoffset=10   xadvance=16   page=0    chnl=0 
char id=55      x=261  y=180  width=17   height=24   xoffset=1    yoffset=10   xadvance=16   page=0    chnl=0 
char id=56      x=278  y=180  width=16   height=24   xoffset=1    yoffset=10   xadvance=16   page=0    chnl=0 
char id=57      x=294  y=180  width=16   height=24   xoffset=1    yoffset=10   xadvance=16   page=0    chnl=0 
char id=58      x=248  y=204  width=5    height=18   xoffset=1    yoffset=16   xadvance=7    page=0    chnl=0 
char id=59      x=118  y=204  width=6    height=22   xoffset=1    yoffset=16   xadvance=7    page=0    chnl=0 
char id=60      x=133  y=227  width=16   height=16   xoffset=1    yoffset=16   xadvance=21   page=0    chnl=0 
char id=61      x=224  y=227  width=17   height=11   xoffset=1    yoffset=18   xadvance=21   page=0    chnl=0 
char id=62      x=149  y=227  width=16   height=16   xoffset=1    yoffset=16   xadvance=21   page=0    chnl=0 
char id=63      x=440  y=180  width=12   height=23   xoffset=1    yoffset=11   xadvance=13   page=0    chnl=0 
char id=64      x=292  y=99   width=26   height=27   xoffset=1    yoffset=10   xadvance=29   page=0    chnl=0 
char id=65      x=239  y=154  width=21   height=24   xoffset=1    yoffset=10   xadvance=19   page=0    chnl=0 
char id=66      x=260  y=154  width=15   height=24   xoffset=1    yoffset=10   xadvance=17   page=0    chnl=0 
char id=67      x=275  y=154  width=19   height=24   xoffset=1    yoffset=10   xadvance=19   page=0    chnl=0 
char id=68      x=294  y=154  width=19   height=24   xoffset=1    yoffset=10   xadvance=21   page=0    chnl=0 
char id=69      x=313  y=154  width=14   height=24   xoffset=1    yoffset=10   xadvance=15   page=0    chnl=0 
char id=70      x=327  y=154  width=14   height=24   xoffset=1    yoffset=10   xadvance=15   page=0    chnl=0 
char id=71      x=341  y=154  width=20   height=24   xoffset=1    yoffset=10   xadvance=21   page=0    chnl=0 
char id=72      x=361  y=154  width=18   height=24   xoffset=1    yoffset=10   xadvance=21   page=0    chnl=0 
char id=73      x=379  y=154  width=5    height=24   xoffset=1    yoffset=10   xadvance=8    page=0    chnl=0 
char id=74      x=384  y=154  width=10   height=24   xoffset=1    yoffset=10   xadvance=11   page=0    chnl=0 
char id=75      x=394  y=154  width=16   height=24   xoffset=1    yoffset=10   xadvance=17   page=0    chnl=0 
char id=76      x=410  y=154  width=13   height=24   xoffset=1    yoffset=10   xadvance=14   page=0    chnl=0 
char id=77      x=423  y=154  width=24   height=24   xoffset=1    yoffset=10   xadvance=27   page=0    chnl=0 
char id=78      x=447  y=154  width=19   height=24   xoffset=1    yoffset=10   xadvance=22   page=0    chnl=0 
char id=79      x=466  y=154  width=23   height=24   xoffset=1    yoffset=10   xadvance=23   page=0    chnl=0 
char id=80      x=489  y=154  width=15   height=24   xoffset=1    yoffset=10   xadvance=17   page=0    chnl=0 
char id=81      x=198  y=127  width=25   height=26   xoffset=1    yoffset=10   xadvance=23   page=0    chnl=0 
char id=82      x=0    y=180  width=17   height=24   xoffset=1    yoffset=10   xadvance=18   page=0    chnl=0 
char id=83      x=17   y=180  width=15   height=24   xoffset=1    yoffset=10   xadvance=16   page=0    chnl=0 
char id=84      x=32   y=180  width=17   height=24   xoffset=1    yoffset=10   xadvance=16   page=0    chnl=0 
char id=85      x=49   y=180  width=19   height=24   xoffset=1    yoffset=10   xadvance=21   page=0    chnl=0 
char id=86      x=68   y=180  width=21   height=24   xoffset=1    yoffset=10   xadvance=19   page=0    chnl=0 
char id=87      x=89   y=180  width=30   height=24   xoffset=1    yoffset=10   xadvance=28   page=0    chnl=0 
char id=88      x=119  y=180  width=20   height=24   xoffset=1    yoffset=10   xadvance=18   page=0    chnl=0 
char id=89      x=139  y=180  width=19   height=24   xoffset=1    yoffset=10   xadvance=17   page=0    chnl=0 
char id=90      x=158  y=180  width=19   height=24   xoffset=1    yoffset=10   xadvance=17   page=0    chnl=0 
char id=91      x=291  y=68   width=8    height=29   xoffset=1    yoffset=10   xadvance=9    page=0    chnl=0 
char id=92      x=18   y=99   width=14   height=28   xoffset=1    yoffset=10   xadvance=11   page=0    chnl=0 
char id=93      x=299  y=68   width=8    height=29   xoffset=1    yoffset=10   xadvance=9    page=0    chnl=0 
char id=94      x=181  y=227  width=16   height=15   xoffset=1    yoffset=10   xadvance=21   page=0    chnl=0 
char id=95      x=307  y=227  width=15   height=4    xoffset=1    yoffset=34   xadvance=12   page=0    chnl=0 
char id=96      x=261  y=227  width=8    height=8    xoffset=1    yoffset=8    xadvance=8    page=0    chnl=0 
char id=97      x=419  y=204  width=14   height=18   xoffset=1    yoffset=16   xadvance=15   page=0    chnl=0 
char id=98      x=73   y=127  width=17   height=26   xoffset=1    yoffset=8    xadvance=18   page=0    chnl=0 
char id=99      x=50   y=227  width=15   height=18   xoffset=1    yoffset=16   xadvance=14   page=0    chnl=0 
char id=100     x=90   y=127  width=17   height=26   xoffset=1    yoffset=8    xadvance=18   page=0    chnl=0 
char id=101     x=286  y=204  width=16   height=18   xoffset=1    yoffset=16   xadvance=16   page=0    chnl=0 
char id=102     x=122  y=127  width=13   height=26   xoffset=1    yoffset=8    xadvance=9    page=0    chnl=0 
char id=103     x=71   y=154  width=17   height=25   xoffset=1    yoffset=16   xadvance=18   page=0    chnl=0 
char id=104     x=170  y=127  width=15   height=26   xoffset=1    yoffset=8    xadvance=17   page=0    chnl=0 
char id=105     x=504  y=68   width=6    height=24   xoffset=1    yoffset=10   xadvance=7    page=0    chnl=0 
char id=106     x=244  y=36   width=12   height=31   xoffset=1    yoffset=10   xadvance=7    page=0    chnl=0 
char id=107     x=107  y=127  width=15   height=26   xoffset=1    yoffset=8    xadvance=15   page=0    chnl=0 
char id=108     x=503  y=99   width=5    height=26   xoffset=1    yoffset=8    xadvance=7    page=0    chnl=0 
char id=109     x=477  y=204  width=25   height=18   xoffset=1    yoffset=16   xadvance=26   page=0    chnl=0 
char id=110     x=0    y=227  width=15   height=18   xoffset=1    yoffset=16   xadvance=17   page=0    chnl=0 
char id=111     x=99   y=227  width=18   height=17   xoffset=1    yoffset=17   xadvance=18   page=0    chnl=0 
char id=112     x=38   y=154  width=17   height=25   xoffset=1    yoffset=16   xadvance=18   page=0    chnl=0 
char id=113     x=88   y=154  width=17   height=25   xoffset=1    yoffset=16   xadvance=18   page=0    chnl=0 
char id=114     x=15   y=227  width=11   height=18   xoffset=1    yoffset=16   xadvance=10   page=0    chnl=0 
char id=115     x=449  y=204  width=12   height=18   xoffset=1    yoffset=16   xadvance=13   page=0    chnl=0 
char id=116     x=181  y=204  width=12   height=21   xoffset=1    yoffset=13   xadvance=10   page=0    chnl=0 
char id=117     x=271  y=204  width=15   height=18   xoffset=1    yoffset=16   xadvance=17   page=0    chnl=0 
char id=118     x=433  y=204  width=16   height=18   xoffset=1    yoffset=16   xadvance=14   page=0    chnl=0 
char id=119     x=26   y=227  width=24   height=18   xoffset=1    yoffset=16   xadvance=22   page=0    chnl=0 
char id=120     x=65   y=227  width=16   height=18   xoffset=1    yoffset=16   xadvance=14   page=0    chnl=0 
char id=121     x=105  y=154  width=17   height=25   xoffset=1    yoffset=16   xadvance=15   page=0    chnl=0 
char id=122     x=461  y=204  width=16   height=18   xoffset=1    yoffset=16   xadvance=14   page=0    chnl=0 
char id=123     x=0    y=99   width=9    height=28   xoffset=1    yoffset=11   xadvance=9    page=0    chnl=0 
char id=124     x=304  y=0    width=5    height=33   xoffset=1    yoffset=8    xadvance=7    page=0    chnl=0 
char id=125     x=9    y=99   width=9    height=28   xoffset=1    yoffset=11   xadvance=9    page=0    chnl=0 
char id=126     x=269  y=227  width=16   height=8    xoffset=1    yoffset=20   xadvance=21   page=0    chnl=0 
char id=192     x=256  y=36   width=21   height=31   xoffset=1    yoffset=3    xadvance=19   page=0    chnl=0 
char id=193     x=277  y=36   width=21   height=31   xoffset=1    yoffset=3    xadvance=19   page=0    chnl=0 
char id=194     x=298  y=36   width=21   height=31   xoffset=1    yoffset=3    xadvance=19   page=0    chnl=0 
char id=195     x=32   y=99   width=21   height=28   xoffset=1    yoffset=6    xadvance=19   page=0    chnl=0 
char id=198     x=360  y=180  width=28   height=24   xoffset=1    yoffset=10   xadvance=26   page=0    chnl=0 
char id=199     x=319  y=36   width=19   height=31   xoffset=1    yoffset=10   xadvance=19   page=0    chnl=0 
char id=200     x=338  y=36   width=14   height=31   xoffset=1    yoffset=3    xadvance=15   page=0    chnl=0 
char id=201     x=352  y=36   width=14   height=31   xoffset=1    yoffset=3    xadvance=15   page=0    chnl=0 
char id=202     x=366  y=36   width=14   height=31   xoffset=1    yoffset=3    xadvance=15   page=0    chnl=0 
char id=204     x=380  y=36   width=9    height=31   xoffset=1    yoffset=3    xadvance=8    page=0    chnl=0 
char id=205     x=389  y=36   width=8    height=31   xoffset=1    yoffset=3    xadvance=8    page=0    chnl=0 
char id=209     x=78   y=99   width=19   height=28   xoffset=1    yoffset=6    xadvance=22   page=0    chnl=0 
char id=210     x=397  y=36   width=23   height=31   xoffset=1    yoffset=3    xadvance=23   page=0    chnl=0 
char id=211     x=420  y=36   width=23   height=31   xoffset=1    yoffset=3    xadvance=23   page=0    chnl=0 
char id=212     x=443  y=36   width=23   height=31   xoffset=1    yoffset=3    xadvance=23   page=0    chnl=0 
char id=213     x=97   y=99   width=23   height=28   xoffset=1    yoffset=6    xadvance=23   page=0    chnl=0 
char id=215     x=197  y=227  width=15   height=15   xoffset=1    yoffset=17   xadvance=21   page=0    chnl=0 
char id=216     x=122  y=154  width=23   height=25   xoffset=1    yoffset=10   xadvance=23   page=0    chnl=0 
char id=217     x=492  y=36   width=19   height=31   xoffset=1    yoffset=3    xadvance=21   page=0    chnl=0 
char id=218     x=26   y=68   width=19   height=31   xoffset=1    yoffset=3    xadvance=21   page=0    chnl=0 
char id=221     x=108  y=68   width=19   height=31   xoffset=1    yoffset=3    xadvance=17   page=0    chnl=0 
char id=222     x=409  y=180  width=15   height=24   xoffset=1    yoffset=10   xadvance=17   page=0    chnl=0 
char id=223     x=223  y=127  width=16   height=26   xoffset=1    yoffset=8    xadvance=16   page=0    chnl=0 
char id=224     x=239  y=127  width=14   height=26   xoffset=1    yoffset=8    xadvance=15   page=0    chnl=0 
char id=225     x=253  y=127  width=14   height=26   xoffset=1    yoffset=8    xadvance=15   page=0    chnl=0 
char id=226     x=267  y=127  width=14   height=26   xoffset=1    yoffset=8    xadvance=15   page=0    chnl=0 
char id=227     x=466  y=180  width=14   height=23   xoffset=1    yoffset=11   xadvance=15   page=0    chnl=0 
char id=230     x=361  y=204  width=25   height=18   xoffset=1    yoffset=16   xadvance=25   page=0    chnl=0 
char id=231     x=159  y=154  width=15   height=25   xoffset=1    yoffset=16   xadvance=14   page=0    chnl=0 
char id=232     x=281  y=127  width=16   height=26   xoffset=1    yoffset=8    xadvance=16   page=0    chnl=0 
char id=233     x=297  y=127  width=16   height=26   xoffset=1    yoffset=8    xadvance=16   page=0    chnl=0 
char id=234     x=313  y=127  width=16   height=26   xoffset=1    yoffset=8    xadvance=16   page=0    chnl=0 
char id=236     x=329  y=127  width=8    height=26   xoffset=1    yoffset=8    xadvance=7    page=0    chnl=0 
char id=237     x=337  y=127  width=8    height=26   xoffset=1    yoffset=8    xadvance=7    page=0    chnl=0 
char id=240     x=135  y=127  width=17   height=26   xoffset=1    yoffset=8    xadvance=17   page=0    chnl=0 
char id=241     x=16   y=204  width=15   height=23   xoffset=1    yoffset=11   xadvance=17   page=0    chnl=0 
char id=242     x=364  y=127  width=18   height=26   xoffset=1    yoffset=8    xadvance=18   page=0    chnl=0 
char id=243     x=382  y=127  width=18   height=26   xoffset=1    yoffset=8    xadvance=18   page=0    chnl=0 
char id=244     x=400  y=127  width=18   height=26   xoffset=1    yoffset=8    xadvance=18   page=0    chnl=0 
char id=245     x=31   y=204  width=18   height=23   xoffset=1    yoffset=11   xadvance=18   page=0    chnl=0 
char id=247     x=165  y=227  width=16   height=16   xoffset=1    yoffset=16   xadvance=21   page=0    chnl=0 
char id=248     x=219  y=204  width=19   height=19   xoffset=1    yoffset=16   xadvance=18   page=0    chnl=0 
char id=249     x=478  y=127  width=15   height=26   xoffset=1    yoffset=8    xadvance=17   page=0    chnl=0 
char id=250     x=493  y=127  width=15   height=26   xoffset=1    yoffset=8    xadvance=17   page=0    chnl=0 
char id=253     x=407  y=0    width=17   height=33   xoffset=1    yoffset=8    xadvance=15   page=0    chnl=0 
char id=254     x=424  y=0    width=17   height=33   xoffset=1    yoffset=8    xadvance=18   page=0    chnl=0 
char id=255     x=189  y=68   width=17   height=31   xoffset=1    yoffset=10   xadvance=15   page=0    chnl=0 
char id=258     x=220  y=68   width=21   height=30   xoffset=1    yoffset=4    xadvance=19   page=0    chnl=0 
char id=259     x=145  y=154  width=14   height=25   xoffset=1    yoffset=9    xadvance=15   page=0    chnl=0 
char id=272     x=388  y=180  width=21   height=24   xoffset=1    yoffset=10   xadvance=21   page=0    chnl=0 
char id=273     x=345  y=127  width=19   height=26   xoffset=1    yoffset=8    xadvance=18   page=0    chnl=0 
char id=296     x=67   y=99   width=11   height=28   xoffset=1    yoffset=6    xadvance=8    page=0    chnl=0 
char id=297     x=496  y=180  width=12   height=23   xoffset=1    yoffset=11   xadvance=7    page=0    chnl=0 
char id=331     x=207  y=154  width=15   height=24   xoffset=1    yoffset=16   xadvance=17   page=0    chnl=0 
char id=360     x=146  y=99   width=19   height=28   xoffset=1    yoffset=6    xadvance=21   page=0    chnl=0 
char id=361     x=69   y=204  width=15   height=23   xoffset=1    yoffset=11   xadvance=17   page=0    chnl=0 
char id=416     x=318  y=99   width=26   height=27   xoffset=1    yoffset=7    xadvance=23   page=0    chnl=0 
char id=417     x=193  y=204  width=20   height=21   xoffset=1    yoffset=13   xadvance=18   page=0    chnl=0 
char id=431     x=165  y=99   width=22   height=28   xoffset=1    yoffset=6    xadvance=21   page=0    chnl=0 
char id=432     x=162  y=204  width=19   height=22   xoffset=1    yoffset=12   xadvance=18   page=0    chnl=0 
char id=593     x=402  y=204  width=17   height=18   xoffset=1    yoffset=16   xadvance=18   page=0    chnl=0 
char id=594     x=330  y=204  width=17   height=18   xoffset=1    yoffset=16   xadvance=18   page=0    chnl=0 
char id=596     x=347  y=204  width=14   height=18   xoffset=1    yoffset=16   xadvance=14   page=0    chnl=0 
char id=601     x=302  y=204  width=16   height=18   xoffset=1    yoffset=16   xadvance=16   page=0    chnl=0 
char id=604     x=318  y=204  width=12   height=18   xoffset=1    yoffset=16   xadvance=12   page=0    chnl=0 
char id=609     x=71   y=154  width=17   height=25   xoffset=1    yoffset=16   xadvance=18   page=0    chnl=0 
char id=618     x=238  y=204  width=10   height=18   xoffset=1    yoffset=16   xadvance=10   page=0    chnl=0 
char id=643     x=238  y=0    width=17   height=33   xoffset=1    yoffset=8    xadvance=7    page=0    chnl=0 
char id=650     x=253  y=204  width=18   height=18   xoffset=1    yoffset=16   xadvance=18   page=0    chnl=0 
char id=652     x=386  y=204  width=16   height=18   xoffset=1    yoffset=16   xadvance=14   page=0    chnl=0 
char id=658     x=55   y=154  width=16   height=25   xoffset=1    yoffset=16   xadvance=13   page=0    chnl=0 
char id=660     x=185  y=127  width=13   height=26   xoffset=1    yoffset=8    xadvance=11   page=0    chnl=0 
char id=676     x=275  y=0    width=29   height=33   xoffset=1    yoffset=8    xadvance=28   page=0    chnl=0 
char id=679     x=255  y=0    width=20   height=33   xoffset=1    yoffset=8    xadvance=14   page=0    chnl=0 
char id=712     x=507  y=204  width=4    height=8    xoffset=1    yoffset=8    xadvance=10   page=0    chnl=0 
char id=716     x=257  y=227  width=4    height=8    xoffset=1    yoffset=33   xadvance=10   page=0    chnl=0 
char id=720     x=213  y=204  width=6    height=19   xoffset=1    yoffset=15   xadvance=8    page=0    chnl=0 
char id=721     x=290  y=227  width=6    height=6    xoffset=1    yoffset=21   xadvance=8    page=0    chnl=0 
char id=951     x=191  y=154  width=16   height=24   xoffset=1    yoffset=16   xadvance=17   page=0    chnl=0 
char id=952     x=152  y=127  width=18   height=26   xoffset=1    yoffset=8    xadvance=18   page=0    chnl=0 
char id=7840    x=307  y=68   width=21   height=29   xoffset=1    yoffset=10   xadvance=19   page=0    chnl=0 
char id=7841    x=452  y=180  width=14   height=23   xoffset=1    yoffset=16   xadvance=15   page=0    chnl=0 
char id=7842    x=454  y=0    width=21   height=32   xoffset=1    yoffset=2    xadvance=19   page=0    chnl=0 
char id=7843    x=344  y=99   width=14   height=27   xoffset=1    yoffset=7    xadvance=15   page=0    chnl=0 
char id=7844    x=0    y=36   width=21   height=32   xoffset=1    yoffset=2    xadvance=19   page=0    chnl=0 
char id=7845    x=374  y=99   width=17   height=27   xoffset=1    yoffset=7    xadvance=15   page=0    chnl=0 
char id=7846    x=475  y=0    width=21   height=32   xoffset=1    yoffset=2    xadvance=19   page=0    chnl=0 
char id=7847    x=358  y=99   width=16   height=27   xoffset=1    yoffset=7    xadvance=15   page=0    chnl=0 
char id=7848    x=309  y=0    width=21   height=33   xoffset=1    yoffset=1    xadvance=19   page=0    chnl=0 
char id=7849    x=228  y=99   width=15   height=28   xoffset=1    yoffset=6    xadvance=15   page=0    chnl=0 
char id=7850    x=163  y=0    width=21   height=34   xoffset=1    yoffset=0    xadvance=19   page=0    chnl=0 
char id=7851    x=450  y=68   width=14   height=29   xoffset=1    yoffset=5    xadvance=15   page=0    chnl=0 
char id=7852    x=0    y=0    width=21   height=36   xoffset=1    yoffset=3    xadvance=19   page=0    chnl=0 
char id=7853    x=141  y=68   width=14   height=31   xoffset=1    yoffset=8    xadvance=15   page=0    chnl=0 
char id=7854    x=121  y=0    width=21   height=34   xoffset=1    yoffset=0    xadvance=19   page=0    chnl=0 
char id=7855    x=422  y=68   width=14   height=29   xoffset=1    yoffset=5    xadvance=15   page=0    chnl=0 
char id=7856    x=100  y=0    width=21   height=34   xoffset=1    yoffset=0    xadvance=19   page=0    chnl=0 
char id=7857    x=408  y=68   width=14   height=29   xoffset=1    yoffset=5    xadvance=15   page=0    chnl=0 
char id=7858    x=58   y=0    width=21   height=35   xoffset=1    yoffset=-1   xadvance=19   page=0    chnl=0 
char id=7859    x=127  y=68   width=14   height=31   xoffset=1    yoffset=3    xadvance=15   page=0    chnl=0 
char id=7860    x=142  y=0    width=21   height=34   xoffset=1    yoffset=0    xadvance=19   page=0    chnl=0 
char id=7861    x=436  y=68   width=14   height=29   xoffset=1    yoffset=5    xadvance=15   page=0    chnl=0 
char id=7862    x=79   y=0    width=21   height=35   xoffset=1    yoffset=4    xadvance=19   page=0    chnl=0 
char id=7863    x=241  y=68   width=14   height=30   xoffset=1    yoffset=9    xadvance=15   page=0    chnl=0 
char id=7864    x=328  y=68   width=14   height=29   xoffset=1    yoffset=10   xadvance=15   page=0    chnl=0 
char id=7865    x=0    y=204  width=16   height=23   xoffset=1    yoffset=16   xadvance=16   page=0    chnl=0 
char id=7866    x=496  y=0    width=14   height=32   xoffset=1    yoffset=2    xadvance=15   page=0    chnl=0 
char id=7867    x=391  y=99   width=16   height=27   xoffset=1    yoffset=7    xadvance=16   page=0    chnl=0 
char id=7868    x=53   y=99   width=14   height=28   xoffset=1    yoffset=6    xadvance=15   page=0    chnl=0 
char id=7869    x=480  y=180  width=16   height=23   xoffset=1    yoffset=11   xadvance=16   page=0    chnl=0 
char id=7870    x=37   y=36   width=18   height=32   xoffset=1    yoffset=2    xadvance=15   page=0    chnl=0 
char id=7871    x=424  y=99   width=17   height=27   xoffset=1    yoffset=7    xadvance=16   page=0    chnl=0 
char id=7872    x=21   y=36   width=16   height=32   xoffset=1    yoffset=2    xadvance=15   page=0    chnl=0 
char id=7873    x=407  y=99   width=17   height=27   xoffset=1    yoffset=7    xadvance=16   page=0    chnl=0 
char id=7874    x=330  y=0    width=15   height=33   xoffset=1    yoffset=1    xadvance=15   page=0    chnl=0 
char id=7875    x=243  y=99   width=17   height=28   xoffset=1    yoffset=6    xadvance=16   page=0    chnl=0 
char id=7876    x=184  y=0    width=14   height=34   xoffset=1    yoffset=0    xadvance=15   page=0    chnl=0 
char id=7877    x=464  y=68   width=16   height=29   xoffset=1    yoffset=5    xadvance=16   page=0    chnl=0 
char id=7878    x=21   y=0    width=14   height=36   xoffset=1    yoffset=3    xadvance=15   page=0    chnl=0 
char id=7879    x=155  y=68   width=16   height=31   xoffset=1    yoffset=8    xadvance=16   page=0    chnl=0 
char id=7880    x=55   y=36   width=8    height=32   xoffset=1    yoffset=2    xadvance=8    page=0    chnl=0 
char id=7881    x=441  y=99   width=8    height=27   xoffset=1    yoffset=7    xadvance=7    page=0    chnl=0 
char id=7882    x=342  y=68   width=5    height=29   xoffset=1    yoffset=10   xadvance=8    page=0    chnl=0 
char id=7883    x=480  y=68   width=6    height=29   xoffset=1    yoffset=10   xadvance=7    page=0    chnl=0 
char id=7884    x=347  y=68   width=23   height=29   xoffset=1    yoffset=10   xadvance=23   page=0    chnl=0 
char id=7885    x=144  y=204  width=18   height=22   xoffset=1    yoffset=17   xadvance=18   page=0    chnl=0 
char id=7886    x=63   y=36   width=23   height=32   xoffset=1    yoffset=2    xadvance=23   page=0    chnl=0 
char id=7887    x=449  y=99   width=18   height=27   xoffset=1    yoffset=7    xadvance=18   page=0    chnl=0 
char id=7888    x=109  y=36   width=23   height=32   xoffset=1    yoffset=2    xadvance=23   page=0    chnl=0 
char id=7889    x=485  y=99   width=18   height=27   xoffset=1    yoffset=7    xadvance=18   page=0    chnl=0 
char id=7890    x=86   y=36   width=23   height=32   xoffset=1    yoffset=2    xadvance=23   page=0    chnl=0 
char id=7891    x=467  y=99   width=18   height=27   xoffset=1    yoffset=7    xadvance=18   page=0    chnl=0 
char id=7892    x=345  y=0    width=23   height=33   xoffset=1    yoffset=1    xadvance=23   page=0    chnl=0 
char id=7893    x=260  y=99   width=18   height=28   xoffset=1    yoffset=6    xadvance=18   page=0    chnl=0 
char id=7894    x=198  y=0    width=23   height=34   xoffset=1    yoffset=0    xadvance=23   page=0    chnl=0 
char id=7895    x=486  y=68   width=18   height=29   xoffset=1    yoffset=5    xadvance=18   page=0    chnl=0 
char id=7896    x=35   y=0    width=23   height=36   xoffset=1    yoffset=3    xadvance=23   page=0    chnl=0 
char id=7897    x=171  y=68   width=18   height=31   xoffset=1    yoffset=8    xadvance=18   page=0    chnl=0 
char id=7898    x=0    y=68   width=26   height=31   xoffset=1    yoffset=3    xadvance=23   page=0    chnl=0 
char id=7899    x=438  y=127  width=20   height=26   xoffset=1    yoffset=8    xadvance=18   page=0    chnl=0 
char id=7900    x=466  y=36   width=26   height=31   xoffset=1    yoffset=3    xadvance=23   page=0    chnl=0 
char id=7901    x=418  y=127  width=20   height=26   xoffset=1    yoffset=8    xadvance=18   page=0    chnl=0 
char id=7902    x=132  y=36   width=26   height=32   xoffset=1    yoffset=2    xadvance=23   page=0    chnl=0 
char id=7903    x=0    y=127  width=20   height=27   xoffset=1    yoffset=7    xadvance=18   page=0    chnl=0 
char id=7904    x=120  y=99   width=26   height=28   xoffset=1    yoffset=6    xadvance=23   page=0    chnl=0 
char id=7905    x=49   y=204  width=20   height=23   xoffset=1    yoffset=11   xadvance=18   page=0    chnl=0 
char id=7906    x=158  y=36   width=26   height=32   xoffset=1    yoffset=7    xadvance=23   page=0    chnl=0 
char id=7907    x=458  y=127  width=20   height=26   xoffset=1    yoffset=13   xadvance=18   page=0    chnl=0 
char id=7908    x=370  y=68   width=19   height=29   xoffset=1    yoffset=10   xadvance=21   page=0    chnl=0 
char id=7909    x=84   y=204  width=15   height=23   xoffset=1    yoffset=16   xadvance=17   page=0    chnl=0 
char id=7910    x=184  y=36   width=19   height=32   xoffset=1    yoffset=2    xadvance=21   page=0    chnl=0 
char id=7911    x=20   y=127  width=15   height=27   xoffset=1    yoffset=7    xadvance=17   page=0    chnl=0 
char id=7912    x=67   y=68   width=22   height=31   xoffset=1    yoffset=3    xadvance=21   page=0    chnl=0 
char id=7913    x=19   y=154  width=19   height=26   xoffset=1    yoffset=8    xadvance=18   page=0    chnl=0 
char id=7914    x=45   y=68   width=22   height=31   xoffset=1    yoffset=3    xadvance=21   page=0    chnl=0 
char id=7915    x=0    y=154  width=19   height=26   xoffset=1    yoffset=8    xadvance=18   page=0    chnl=0 
char id=7916    x=203  y=36   width=22   height=32   xoffset=1    yoffset=2    xadvance=21   page=0    chnl=0 
char id=7917    x=35   y=127  width=19   height=27   xoffset=1    yoffset=7    xadvance=18   page=0    chnl=0 
char id=7918    x=187  y=99   width=22   height=28   xoffset=1    yoffset=6    xadvance=21   page=0    chnl=0 
char id=7919    x=99   y=204  width=19   height=23   xoffset=1    yoffset=11   xadvance=18   page=0    chnl=0 
char id=7920    x=368  y=0    width=22   height=33   xoffset=1    yoffset=6    xadvance=21   page=0    chnl=0 
char id=7921    x=54   y=127  width=19   height=27   xoffset=1    yoffset=12   xadvance=18   page=0    chnl=0 
char id=7922    x=89   y=68   width=19   height=31   xoffset=1    yoffset=3    xadvance=17   page=0    chnl=0 
char id=7923    x=390  y=0    width=17   height=33   xoffset=1    yoffset=8    xadvance=15   page=0    chnl=0 
char id=7924    x=389  y=68   width=19   height=29   xoffset=1    yoffset=10   xadvance=17   page=0    chnl=0 
char id=7925    x=174  y=154  width=17   height=25   xoffset=1    yoffset=16   xadvance=15   page=0    chnl=0 
char id=7926    x=225  y=36   width=19   height=32   xoffset=1    yoffset=2    xadvance=17   page=0    chnl=0 
char id=7927    x=221  y=0    width=17   height=34   xoffset=1    yoffset=7    xadvance=15   page=0    chnl=0 
char id=7928    x=209  y=99   width=19   height=28   xoffset=1    yoffset=6    xadvance=17   page=0    chnl=0 
char id=7929    x=255  y=68   width=17   height=30   xoffset=1    yoffset=11   xadvance=15   page=0    chnl=0 
char id=8599    x=81   y=227  width=18   height=17   xoffset=1    yoffset=16   xadvance=22   page=0    chnl=0 
char id=8600    x=222  y=154  width=17   height=24   xoffset=1    yoffset=10   xadvance=19   page=0    chnl=0 
char id=8747    x=441  y=0    width=13   height=32   xoffset=1    yoffset=9    xadvance=16   page=0    chnl=0 
kernings count=984
kerning first=102 second=41 amount=2
kerning first=102 second=45 amount=-1
kerning first=193 second=87 amount=-1
kerning first=76 second=63 amount=-1
kerning first=7922 second=71 amount=-1
kerning first=65 second=79 amount=-1
kerning first=86 second=81 amount=-1
kerning first=84 second=83 amount=-1
kerning first=68 second=88 amount=-1
kerning first=84 second=232 amount=-3
kerning first=102 second=93 amount=2
kerning first=118 second=97 amount=-1
kerning first=221 second=99 amount=-3
kerning first=80 second=100 amount=-1
kerning first=80 second=101 amount=-1
kerning first=84 second=102 amount=-1
kerning first=113 second=106 amount=1
kerning first=84 second=109 amount=-3
kerning first=84 second=110 amount=-3
kerning first=221 second=111 amount=-3
kerning first=89 second=114 amount=-2
kerning first=221 second=115 amount=-2
kerning first=83 second=122 amount=-1
kerning first=102 second=125 amount=1
kerning first=194 second=199 amount=-1
kerning first=86 second=226 amount=-2
kerning first=87 second=227 amount=-1
kerning first=82 second=233 amount=-1
kerning first=89 second=232 amount=-3
kerning first=7922 second=234 amount=-3
kerning first=75 second=237 amount=-1
kerning first=70 second=236 amount=1
kerning first=222 second=243 amount=-1
kerning first=89 second=245 amount=-3
kerning first=84 second=250 amount=-3
kerning first=84 second=249 amount=-3
kerning first=222 second=198 amount=-4
kerning first=258 second=216 amount=-1
kerning first=84 second=230 amount=-3
kerning first=85 second=192 amount=-1
kerning first=84 second=194 amount=-2
kerning first=210 second=193 amount=-1
kerning first=76 second=212 amount=-1
kerning first=7922 second=210 amount=-1
kerning first=65 second=218 amount=-1
kerning first=192 second=217 amount=-1
kerning first=65 second=253 amount=-1
kerning first=80 second=273 amount=-1
kerning first=221 second=259 amount=-2
kerning first=76 second=194 amount=1
kerning first=89 second=331 amount=-2
kerning first=76 second=360 amount=-1
kerning first=192 second=7922 amount=-2
kerning first=68 second=258 amount=-1
kerning first=258 second=44 amount=1
kerning first=76 second=255 amount=-1
kerning first=84 second=199 amount=-1
kerning first=86 second=100 amount=-2
kerning first=87 second=113 amount=-1
kerning first=65 second=42 amount=-2
kerning first=221 second=109 amount=-2
kerning first=216 second=89 amount=-1
kerning first=222 second=224 amount=-1
kerning first=84 second=259 amount=-3
kerning first=221 second=193 amount=-2
kerning first=258 second=213 amount=-1
kerning first=68 second=46 amount=-2
kerning first=86 second=113 amount=-2
kerning first=195 second=86 amount=-2
kerning first=75 second=74 amount=1
kerning first=114 second=120 amount=1
kerning first=76 second=192 amount=1
kerning first=87 second=194 amount=-1
kerning first=258 second=210 amount=-1
kerning first=75 second=87 amount=1
kerning first=211 second=89 amount=-1
kerning first=65 second=7922 amount=-2
kerning first=212 second=193 amount=-1
kerning first=75 second=253 amount=-1
kerning first=221 second=114 amount=-2
kerning first=84 second=103 amount=-3
kerning first=211 second=258 amount=-1
kerning first=221 second=224 amount=-3
kerning first=195 second=199 amount=-1
kerning first=86 second=244 amount=-2
kerning first=76 second=42 amount=-3
kerning first=81 second=86 amount=-1
kerning first=89 second=234 amount=-3
kerning first=222 second=259 amount=-1
kerning first=82 second=89 amount=-1
kerning first=216 second=65 amount=-1
kerning first=65 second=85 amount=-1
kerning first=221 second=213 amount=-1
kerning first=75 second=212 amount=-1
kerning first=7922 second=67 amount=-1
kerning first=86 second=331 amount=-1
kerning first=82 second=245 amount=-1
kerning first=65 second=255 amount=-1
kerning first=7922 second=225 amount=-3
kerning first=80 second=88 amount=-1
kerning first=7922 second=216 amount=-1
kerning first=7922 second=115 amount=-2
kerning first=258 second=87 amount=-1
kerning first=84 second=99 amount=-3
kerning first=195 second=7923 amount=-1
kerning first=102 second=236 amount=1
kerning first=89 second=74 amount=-1
kerning first=192 second=213 amount=-1
kerning first=82 second=59 amount=1
kerning first=221 second=210 amount=-1
kerning first=70 second=44 amount=-2
kerning first=102 second=118 amount=1
kerning first=210 second=195 amount=-1
kerning first=75 second=118 amount=-1
kerning first=114 second=253 amount=1
kerning first=70 second=259 amount=-1
kerning first=7922 second=249 amount=-2
kerning first=221 second=198 amount=-3
kerning first=86 second=212 amount=-1
kerning first=193 second=212 amount=-1
kerning first=7922 second=258 amount=-2
kerning first=192 second=79 amount=-1
kerning first=80 second=234 amount=-1
kerning first=258 second=79 amount=-1
kerning first=221 second=44 amount=-3
kerning first=119 second=44 amount=-1
kerning first=76 second=221 amount=-2
kerning first=42 second=74 amount=-2
kerning first=81 second=65 amount=-1
kerning first=84 second=242 amount=-3
kerning first=76 second=90 amount=1
kerning first=42 second=273 amount=-1
kerning first=81 second=195 amount=-1
kerning first=360 second=65 amount=-1
kerning first=360 second=195 amount=-1
kerning first=194 second=7923 amount=-1
kerning first=84 second=7923 amount=-2
kerning first=86 second=234 amount=-2
kerning first=194 second=86 amount=-2
kerning first=84 second=86 amount=1
kerning first=221 second=244 amount=-3
kerning first=65 second=90 amount=1
kerning first=75 second=121 amount=-1
kerning first=89 second=249 amount=-2
kerning first=89 second=225 amount=-3
kerning first=218 second=258 amount=-1
kerning first=213 second=258 amount=-1
kerning first=70 second=227 amount=-1
kerning first=107 second=45 amount=-2
kerning first=192 second=210 amount=-1
kerning first=80 second=87 amount=1
kerning first=86 second=224 amount=-2
kerning first=76 second=7922 amount=-2
kerning first=221 second=79 amount=-1
kerning first=87 second=243 amount=-1
kerning first=107 second=58 amount=1
kerning first=71 second=84 amount=-1
kerning first=258 second=212 amount=-1
kerning first=65 second=221 amount=-2
kerning first=221 second=249 amount=-2
kerning first=7922 second=331 amount=-2
kerning first=82 second=243 amount=-1
kerning first=65 second=199 amount=-1
kerning first=89 second=227 amount=-2
kerning first=192 second=74 amount=1
kerning first=70 second=65 amount=-2
kerning first=82 second=7922 amount=-1
kerning first=87 second=44 amount=-2
kerning first=87 second=232 amount=-1
kerning first=112 second=102 amount=-1
kerning first=75 second=297 amount=1
kerning first=83 second=253 amount=-1
kerning first=212 second=87 amount=-1
kerning first=82 second=84 amount=-1
kerning first=192 second=87 amount=-1
kerning first=84 second=81 amount=-1
kerning first=65 second=211 amount=-1
kerning first=42 second=99 amount=-1
kerning first=210 second=194 amount=-1
kerning first=195 second=121 amount=-1
kerning first=222 second=258 amount=-2
kerning first=89 second=213 amount=-1
kerning first=76 second=199 amount=-1
kerning first=80 second=244 amount=-1
kerning first=216 second=221 amount=-1
kerning first=7922 second=110 amount=-2
kerning first=221 second=101 amount=-3
kerning first=82 second=111 amount=-1
kerning first=222 second=46 amount=-5
kerning first=221 second=212 amount=-1
kerning first=75 second=213 amount=-1
kerning first=80 second=231 amount=-1
kerning first=99 second=89 amount=-1
kerning first=221 second=74 amount=-1
kerning first=80 second=113 amount=-1
kerning first=210 second=65 amount=-1
kerning first=89 second=297 amount=1
kerning first=87 second=233 amount=-1
kerning first=193 second=79 amount=-1
kerning first=76 second=211 amount=-1
kerning first=86 second=79 amount=-1
kerning first=84 second=243 amount=-3
kerning first=70 second=194 amount=-2
kerning first=210 second=192 amount=-1
kerning first=117 second=39 amount=-1
kerning first=80 second=97 amount=-1
kerning first=76 second=81 amount=-1
kerning first=193 second=118 amount=-1
kerning first=80 second=44 amount=-5
kerning first=192 second=253 amount=-1
kerning first=79 second=90 amount=-1
kerning first=211 second=84 amount=-1
kerning first=79 second=221 amount=-1
kerning first=74 second=258 amount=-1
kerning first=76 second=65 amount=1
kerning first=258 second=74 amount=1
kerning first=87 second=103 amount=-1
kerning first=84 second=65 amount=-2
kerning first=80 second=224 amount=-1
kerning first=65 second=86 amount=-2
kerning first=192 second=118 amount=-1
kerning first=89 second=259 amount=-2
kerning first=192 second=212 amount=-1
kerning first=222 second=111 amount=-1
kerning first=117 second=34 amount=-1
kerning first=65 second=59 amount=1
kerning first=193 second=213 amount=-1
kerning first=193 second=253 amount=-1
kerning first=221 second=331 amount=-2
kerning first=114 second=116 amount=1
kerning first=258 second=71 amount=-1
kerning first=84 second=361 amount=-3
kerning first=7922 second=99 amount=-3
kerning first=75 second=79 amount=-1
kerning first=221 second=113 amount=-3
kerning first=70 second=192 amount=-2
kerning first=75 second=113 amount=-1
kerning first=81 second=192 amount=-1
kerning first=258 second=217 amount=-1
kerning first=360 second=192 amount=-1
kerning first=79 second=7922 amount=-1
kerning first=118 second=46 amount=-2
kerning first=80 second=259 amount=-1
kerning first=76 second=121 amount=-1
kerning first=87 second=242 amount=-1
kerning first=68 second=90 amount=-1
kerning first=213 second=84 amount=-1
kerning first=7922 second=245 amount=-3
kerning first=76 second=7923 amount=-1
kerning first=86 second=117 amount=-1
kerning first=90 second=255 amount=-1
kerning first=76 second=86 amount=-2
kerning first=65 second=7923 amount=-1
kerning first=89 second=100 amount=-3
kerning first=89 second=193 amount=-2
kerning first=83 second=118 amount=-1
kerning first=331 second=106 amount=1
kerning first=217 second=65 amount=-1
kerning first=222 second=226 amount=-1
kerning first=7922 second=46 amount=-3
kerning first=107 second=46 amount=1
kerning first=217 second=258 amount=-1
kerning first=87 second=230 amount=-1
kerning first=7922 second=84 amount=1
kerning first=86 second=101 amount=-2
kerning first=7922 second=241 amount=-2
kerning first=213 second=89 amount=-1
kerning first=211 second=221 amount=-1
kerning first=221 second=231 amount=-3
kerning first=951 second=39 amount=-2
kerning first=86 second=74 amount=-1
kerning first=42 second=100 amount=-1
kerning first=211 second=7922 amount=-1
kerning first=258 second=118 amount=-1
kerning first=107 second=111 amount=-1
kerning first=89 second=250 amount=-2
kerning first=258 second=253 amount=-1
kerning first=102 second=44 amount=-2
kerning first=7922 second=111 amount=-3
kerning first=86 second=297 amount=1
kerning first=89 second=195 amount=-2
kerning first=211 second=90 amount=-1
kerning first=67 second=81 amount=-1
kerning first=221 second=195 amount=-2
kerning first=90 second=84 amount=1
kerning first=258 second=7923 amount=-1
kerning first=85 second=198 amount=-2
kerning first=216 second=194 amount=-1
kerning first=210 second=258 amount=-1
kerning first=81 second=44 amount=-1
kerning first=199 second=199 amount=-1
kerning first=121 second=63 amount=-1
kerning first=74 second=193 amount=-1
kerning first=76 second=67 amount=-1
kerning first=222 second=195 amount=-2
kerning first=193 second=86 amount=-2
kerning first=84 second=74 amount=-2
kerning first=194 second=74 amount=1
kerning first=210 second=221 amount=-1
kerning first=89 second=79 amount=-1
kerning first=87 second=65 amount=-1
kerning first=84 second=234 amount=-3
kerning first=221 second=241 amount=-2
kerning first=222 second=192 amount=-2
kerning first=76 second=216 amount=-1
kerning first=84 second=89 amount=1
kerning first=86 second=231 amount=-2
kerning first=194 second=89 amount=-2
kerning first=107 second=244 amount=-1
kerning first=116 second=63 amount=-1
kerning first=114 second=118 amount=1
kerning first=222 second=193 amount=-2
kerning first=40 second=106 amount=3
kerning first=85 second=193 amount=-1
kerning first=65 second=84 amount=-2
kerning first=213 second=87 amount=-1
kerning first=7922 second=199 amount=-1
kerning first=199 second=211 amount=-1
kerning first=212 second=195 amount=-1
kerning first=221 second=225 amount=-3
kerning first=76 second=119 amount=-1
kerning first=84 second=258 amount=-2
kerning first=258 second=59 amount=1
kerning first=216 second=87 amount=-1
kerning first=258 second=86 amount=-2
kerning first=99 second=7922 amount=-1
kerning first=70 second=225 amount=-1
kerning first=111 second=34 amount=-2
kerning first=89 second=198 amount=-3
kerning first=102 second=46 amount=-2
kerning first=86 second=192 amount=-2
kerning first=194 second=212 amount=-1
kerning first=76 second=84 amount=-2
kerning first=75 second=88 amount=1
kerning first=213 second=192 amount=-1
kerning first=89 second=194 amount=-2
kerning first=69 second=74 amount=1
kerning first=123 second=106 amount=3
kerning first=192 second=71 amount=-1
kerning first=195 second=360 amount=-1
kerning first=74 second=46 amount=-1
kerning first=65 second=119 amount=-1
kerning first=213 second=7922 amount=-1
kerning first=86 second=110 amount=-1
kerning first=87 second=226 amount=-1
kerning first=213 second=90 amount=-1
kerning first=89 second=101 amount=-3
kerning first=68 second=84 amount=-1
kerning first=193 second=7923 amount=-1
kerning first=84 second=241 amount=-3
kerning first=81 second=194 amount=-1
kerning first=71 second=255 amount=-1
kerning first=360 second=194 amount=-1
kerning first=86 second=103 amount=-2
kerning first=221 second=199 amount=-1
kerning first=221 second=112 amount=-2
kerning first=67 second=213 amount=-1
kerning first=79 second=89 amount=-1
kerning first=70 second=224 amount=-1
kerning first=70 second=195 amount=-2
kerning first=195 second=212 amount=-1
kerning first=7922 second=192 amount=-2
kerning first=70 second=230 amount=-1
kerning first=89 second=212 amount=-1
kerning first=67 second=79 amount=-1
kerning first=84 second=211 amount=-1
kerning first=7922 second=211 amount=-1
kerning first=89 second=243 amount=-3
kerning first=42 second=101 amount=-1
kerning first=221 second=71 amount=-1
kerning first=194 second=360 amount=-1
kerning first=86 second=259 amount=-2
kerning first=87 second=273 amount=-1
kerning first=79 second=84 amount=-1
kerning first=82 second=99 amount=-1
kerning first=75 second=7923 amount=-1
kerning first=222 second=113 amount=-1
kerning first=75 second=86 amount=1
kerning first=194 second=121 amount=-1
kerning first=7922 second=193 amount=-2
kerning first=84 second=121 amount=-2
kerning first=80 second=225 amount=-1
kerning first=107 second=99 amount=-1
kerning first=87 second=258 amount=-1
kerning first=210 second=89 amount=-1
kerning first=195 second=89 amount=-2
kerning first=194 second=67 amount=-1
kerning first=84 second=67 amount=-1
kerning first=88 second=46 amount=1
kerning first=253 second=63 amount=-1
kerning first=102 second=116 amount=1
kerning first=84 second=113 amount=-3
kerning first=42 second=113 amount=-1
kerning first=7922 second=361 amount=-2
kerning first=211 second=192 amount=-1
kerning first=79 second=65 amount=-1
kerning first=199 second=216 amount=-1
kerning first=106 second=106 amount=1
kerning first=89 second=71 amount=-1
kerning first=212 second=88 amount=-1
kerning first=65 second=89 amount=-2
kerning first=82 second=242 amount=-1
kerning first=102 second=297 amount=2
kerning first=118 second=226 amount=-1
kerning first=222 second=87 amount=1
kerning first=75 second=81 amount=-1
kerning first=65 second=360 amount=-1
kerning first=87 second=99 amount=-1
kerning first=86 second=273 amount=-2
kerning first=193 second=218 amount=-1
kerning first=86 second=194 amount=-2
kerning first=75 second=116 amount=-1
kerning first=76 second=258 amount=1
kerning first=89 second=244 amount=-3
kerning first=114 second=59 amount=1
kerning first=81 second=221 amount=-1
kerning first=86 second=112 amount=-1
kerning first=194 second=213 amount=-1
kerning first=89 second=231 amount=-3
kerning first=89 second=113 amount=-3
kerning first=68 second=65 amount=-1
kerning first=114 second=44 amount=-2
kerning first=195 second=79 amount=-1
kerning first=114 second=121 amount=1
kerning first=68 second=192 amount=-1
kerning first=7922 second=97 amount=-3
kerning first=84 second=111 amount=-3
kerning first=195 second=118 amount=-1
kerning first=42 second=103 amount=-1
kerning first=89 second=44 amount=-3
kerning first=7922 second=226 amount=-3
kerning first=107 second=242 amount=-1
kerning first=84 second=84 amount=1
kerning first=221 second=232 amount=-3
kerning first=194 second=84 amount=-2
kerning first=84 second=227 amount=-3
kerning first=221 second=100 amount=-3
kerning first=7922 second=109 amount=-2
kerning first=75 second=119 amount=-1
kerning first=75 second=244 amount=-1
kerning first=86 second=109 amount=-1
kerning first=211 second=65 amount=-1
kerning first=199 second=210 amount=-1
kerning first=89 second=224 amount=-3
kerning first=87 second=234 amount=-1
kerning first=195 second=213 amount=-1
kerning first=102 second=58 amount=1
kerning first=107 second=233 amount=-1
kerning first=89 second=230 amount=-3
kerning first=84 second=79 amount=-1
kerning first=194 second=79 amount=-1
kerning first=79 second=192 amount=-1
kerning first=102 second=63 amount=1
kerning first=86 second=71 amount=-1
kerning first=193 second=71 amount=-1
kerning first=7922 second=233 amount=-3
kerning first=111 second=39 amount=-2
kerning first=7922 second=114 amount=-2
kerning first=84 second=273 amount=-3
kerning first=89 second=81 amount=-1
kerning first=195 second=221 amount=-2
kerning first=88 second=297 amount=1
kerning first=71 second=87 amount=-1
kerning first=87 second=84 amount=1
kerning first=70 second=74 amount=-1
kerning first=80 second=245 amount=-1
kerning first=86 second=44 amount=-3
kerning first=90 second=121 amount=-1
kerning first=80 second=226 amount=-1
kerning first=192 second=218 amount=-1
kerning first=86 second=232 amount=-2
kerning first=211 second=87 amount=-1
kerning first=80 second=193 amount=-2
kerning first=221 second=297 amount=1
kerning first=89 second=103 amount=-3
kerning first=79 second=258 amount=-1
kerning first=87 second=111 amount=-1
kerning first=216 second=86 amount=-1
kerning first=76 second=89 amount=-2
kerning first=86 second=258 amount=-2
kerning first=65 second=67 amount=-1
kerning first=80 second=46 amount=-5
kerning first=70 second=193 amount=-2
kerning first=66 second=7922 amount=-1
kerning first=221 second=110 amount=-2
kerning first=84 second=221 amount=1
kerning first=75 second=71 amount=-1
kerning first=222 second=97 amount=-1
kerning first=195 second=74 amount=1
kerning first=102 second=119 amount=1
kerning first=65 second=216 amount=-1
kerning first=7922 second=65 amount=-2
kerning first=75 second=44 amount=1
kerning first=222 second=242 amount=-1
kerning first=80 second=195 amount=-2
kerning first=68 second=198 amount=-1
kerning first=68 second=87 amount=-1
kerning first=81 second=84 amount=-1
kerning first=74 second=195 amount=-1
kerning first=212 second=194 amount=-1
kerning first=192 second=255 amount=-1
kerning first=107 second=245 amount=-1
kerning first=217 second=192 amount=-1
kerning first=75 second=199 amount=-1
kerning first=82 second=234 amount=-1
kerning first=110 second=39 amount=-2
kerning first=7922 second=212 amount=-1
kerning first=114 second=119 amount=1
kerning first=221 second=273 amount=-3
kerning first=111 second=102 amount=-1
kerning first=67 second=67 amount=-1
kerning first=84 second=101 amount=-3
kerning first=86 second=46 amount=-3
kerning first=87 second=198 amount=-1
kerning first=7922 second=244 amount=-3
kerning first=80 second=230 amount=-1
kerning first=210 second=88 amount=-1
kerning first=86 second=225 amount=-2
kerning first=213 second=65 amount=-1
kerning first=218 second=65 amount=-1
kerning first=221 second=230 amount=-3
kerning first=86 second=115 amount=-1
kerning first=65 second=121 amount=-1
kerning first=212 second=192 amount=-1
kerning first=7922 second=227 amount=-2
kerning first=67 second=216 amount=-1
kerning first=75 second=89 amount=1
kerning first=258 second=360 amount=-1
kerning first=34 second=114 amount=-1
kerning first=221 second=81 amount=-1
kerning first=103 second=106 amount=1
kerning first=76 second=193 amount=1
kerning first=221 second=117 amount=-2
kerning first=75 second=245 amount=-1
kerning first=86 second=213 amount=-1
kerning first=85 second=195 amount=-1
kerning first=194 second=217 amount=-1
kerning first=7922 second=117 amount=-2
kerning first=222 second=273 amount=-1
kerning first=75 second=59 amount=1
kerning first=65 second=213 amount=-1
kerning first=258 second=85 amount=-1
kerning first=107 second=234 amount=-1
kerning first=84 second=120 amount=-3
kerning first=258 second=7922 amount=-2
kerning first=82 second=74 amount=1
kerning first=210 second=86 amount=-1
kerning first=85 second=65 amount=-1
kerning first=222 second=65 amount=-2
kerning first=89 second=67 amount=-1
kerning first=222 second=225 amount=-1
kerning first=199 second=212 amount=-1
kerning first=216 second=84 amount=-1
kerning first=86 second=233 amount=-2
kerning first=79 second=44 amount=-1
kerning first=90 second=297 amount=1
kerning first=221 second=243 amount=-3
kerning first=83 second=255 amount=-1
kerning first=39 second=115 amount=-1
kerning first=80 second=194 amount=-2
kerning first=67 second=71 amount=-1
kerning first=89 second=216 amount=-1
kerning first=193 second=360 amount=-1
kerning first=119 second=46 amount=-1
kerning first=89 second=115 amount=-2
kerning first=114 second=46 amount=-2
kerning first=221 second=46 amount=-3
kerning first=80 second=232 amount=-1
kerning first=210 second=84 amount=-1
kerning first=195 second=84 amount=-2
kerning first=74 second=198 amount=-2
kerning first=84 second=233 amount=-3
kerning first=193 second=217 amount=-1
kerning first=71 second=121 amount=-1
kerning first=7922 second=74 amount=-1
kerning first=74 second=65 amount=-1
kerning first=87 second=297 amount=1
kerning first=76 second=213 amount=-1
kerning first=68 second=193 amount=-1
kerning first=89 second=258 amount=-2
kerning first=65 second=210 amount=-1
kerning first=86 second=111 amount=-2
kerning first=84 second=118 amount=-1
kerning first=194 second=118 amount=-1
kerning first=192 second=85 amount=-1
kerning first=7923 second=46 amount=-2
kerning first=84 second=216 amount=-1
kerning first=82 second=113 amount=-1
kerning first=70 second=97 amount=-1
kerning first=76 second=79 amount=-1
kerning first=118 second=225 amount=-1
kerning first=194 second=221 amount=-2
kerning first=80 second=243 amount=-1
kerning first=86 second=230 amount=-2
kerning first=221 second=194 amount=-2
kerning first=65 second=44 amount=1
kerning first=87 second=101 amount=-1
kerning first=84 second=97 amount=-3
kerning first=192 second=221 amount=-2
kerning first=221 second=233 amount=-3
kerning first=212 second=221 amount=-1
kerning first=118 second=227 amount=-1
kerning first=71 second=253 amount=-1
kerning first=193 second=74 amount=1
kerning first=79 second=87 amount=-1
kerning first=87 second=46 amount=-2
kerning first=192 second=90 amount=1
kerning first=212 second=90 amount=-1
kerning first=65 second=87 amount=-1
kerning first=80 second=99 amount=-1
kerning first=79 second=193 amount=-1
kerning first=76 second=210 amount=-1
kerning first=42 second=258 amount=-2
kerning first=212 second=7922 amount=-1
kerning first=84 second=231 amount=-3
kerning first=193 second=89 amount=-2
kerning first=75 second=67 amount=-1
kerning first=114 second=58 amount=1
kerning first=195 second=67 amount=-1
kerning first=86 second=245 amount=-2
kerning first=80 second=233 amount=-1
kerning first=76 second=74 amount=1
kerning first=194 second=216 amount=-1
kerning first=99 second=84 amount=-1
kerning first=7922 second=273 amount=-3
kerning first=216 second=88 amount=-1
kerning first=87 second=231 amount=-1
kerning first=193 second=255 amount=-1
kerning first=76 second=87 amount=-1
kerning first=258 second=90 amount=1
kerning first=222 second=232 amount=-1
kerning first=221 second=211 amount=-1
kerning first=221 second=250 amount=-2
kerning first=195 second=218 amount=-1
kerning first=216 second=258 amount=-1
kerning first=7922 second=213 amount=-1
kerning first=222 second=100 amount=-1
kerning first=84 second=224 amount=-3
kerning first=192 second=199 amount=-1
kerning first=221 second=103 amount=-3
kerning first=7922 second=242 amount=-3
kerning first=195 second=119 amount=-1
kerning first=88 second=44 amount=1
kerning first=89 second=110 amount=-2
kerning first=258 second=221 amount=-2
kerning first=81 second=89 amount=-1
kerning first=65 second=212 amount=-1
kerning first=110 second=34 amount=-2
kerning first=80 second=192 amount=-2
kerning first=199 second=213 amount=-1
kerning first=70 second=198 amount=-3
kerning first=86 second=241 amount=-1
kerning first=65 second=74 amount=1
kerning first=80 second=198 amount=-4
kerning first=84 second=119 amount=-2
kerning first=192 second=211 amount=-1
kerning first=75 second=243 amount=-1
kerning first=7922 second=297 amount=1
kerning first=82 second=273 amount=-1
kerning first=195 second=216 amount=-1
kerning first=114 second=45 amount=-2
kerning first=7923 second=63 amount=-1
kerning first=75 second=111 amount=-1
kerning first=76 second=253 amount=-1
kerning first=80 second=242 amount=-1
kerning first=75 second=255 amount=-1
kerning first=194 second=119 amount=-1
kerning first=86 second=195 amount=-2
kerning first=222 second=99 amount=-1
kerning first=360 second=198 amount=-2
kerning first=211 second=193 amount=-1
kerning first=87 second=244 amount=-1
kerning first=90 second=74 amount=1
kerning first=194 second=210 amount=-1
kerning first=84 second=244 amount=-3
kerning first=84 second=210 amount=-1
kerning first=81 second=258 amount=-1
kerning first=84 second=114 amount=-3
kerning first=7922 second=259 amount=-2
kerning first=76 second=118 amount=-1
kerning first=222 second=194 amount=-2
kerning first=76 second=85 amount=-1
kerning first=213 second=193 amount=-1
kerning first=70 second=226 amount=-1
kerning first=218 second=193 amount=-1
kerning first=71 second=122 amount=-1
kerning first=193 second=7922 amount=-2
kerning first=81 second=88 amount=-1
kerning first=199 second=79 amount=-1
kerning first=86 second=243 amount=-2
kerning first=89 second=111 amount=-3
kerning first=87 second=97 amount=-1
kerning first=195 second=71 amount=-1
kerning first=42 second=65 amount=-2
kerning first=7923 second=44 amount=-1
kerning first=192 second=360 amount=-1
kerning first=193 second=221 amount=-2
kerning first=193 second=90 amount=1
kerning first=218 second=195 amount=-1
kerning first=213 second=195 amount=-1
kerning first=192 second=7923 amount=-1
kerning first=258 second=255 amount=-1
kerning first=360 second=258 amount=-1
kerning first=83 second=7923 amount=-1
kerning first=222 second=88 amount=-1
kerning first=7922 second=100 amount=-3
kerning first=221 second=242 amount=-3
kerning first=194 second=87 amount=-1
kerning first=70 second=258 amount=-2
kerning first=80 second=103 amount=-1
kerning first=195 second=210 amount=-1
kerning first=258 second=199 amount=-1
kerning first=42 second=111 amount=-1
kerning first=212 second=86 amount=-1
kerning first=192 second=86 amount=-2
kerning first=87 second=224 amount=-1
kerning first=65 second=118 amount=-1
kerning first=193 second=85 amount=-1
kerning first=84 second=192 amount=-2
kerning first=86 second=250 amount=-1
kerning first=951 second=34 amount=-2
kerning first=89 second=46 amount=-3
kerning first=258 second=42 amount=-2
kerning first=75 second=7922 amount=1
kerning first=194 second=71 amount=-1
kerning first=74 second=192 amount=-1
kerning first=258 second=211 amount=-1
kerning first=75 second=221 amount=1
kerning first=84 second=212 amount=-1
kerning first=84 second=71 amount=-1
kerning first=253 second=44 amount=-1
kerning first=80 second=65 amount=-2
kerning first=34 second=115 amount=-1
kerning first=90 second=253 amount=-1
kerning first=84 second=44 amount=-2
kerning first=216 second=195 amount=-1
kerning first=79 second=46 amount=-1
kerning first=84 second=226 amount=-3
kerning first=75 second=90 amount=1
kerning first=7922 second=195 amount=-2
kerning first=89 second=84 amount=1
kerning first=210 second=87 amount=-1
kerning first=195 second=87 amount=-1
kerning first=258 second=84 amount=-2
kerning first=90 second=7923 amount=-1
kerning first=85 second=194 amount=-1
kerning first=192 second=121 amount=-1
kerning first=194 second=211 amount=-1
kerning first=89 second=210 amount=-1
kerning first=82 second=103 amount=-1
kerning first=79 second=86 amount=-1
kerning first=86 second=193 amount=-2
kerning first=192 second=67 amount=-1
kerning first=88 second=59 amount=1
kerning first=221 second=226 amount=-3
kerning first=82 second=221 amount=-1
kerning first=221 second=97 amount=-3
kerning first=216 second=192 amount=-1
kerning first=87 second=225 amount=-1
kerning first=68 second=86 amount=-1
kerning first=7922 second=79 amount=-1
kerning first=218 second=194 amount=-1
kerning first=213 second=194 amount=-1
kerning first=116 second=45 amount=-2
kerning first=211 second=195 amount=-1
kerning first=84 second=87 amount=1
kerning first=82 second=100 amount=-1
kerning first=84 second=198 amount=-4
kerning first=66 second=89 amount=-1
kerning first=192 second=216 amount=-1
kerning first=118 second=259 amount=-1
kerning first=194 second=253 amount=-1
kerning first=84 second=253 amount=-2
kerning first=216 second=193 amount=-1
kerning first=87 second=192 amount=-1
kerning first=82 second=232 amount=-1
kerning first=221 second=84 amount=1
kerning first=86 second=99 amount=-2
kerning first=84 second=245 amount=-3
kerning first=75 second=211 amount=-1
kerning first=76 second=195 amount=1
kerning first=86 second=361 amount=-1
kerning first=192 second=119 amount=-1
kerning first=217 second=194 amount=-1
kerning first=67 second=212 amount=-1
kerning first=86 second=199 amount=-1
kerning first=193 second=199 amount=-1
kerning first=7922 second=112 amount=-2
kerning first=82 second=101 amount=-1
kerning first=221 second=227 amount=-2
kerning first=84 second=100 amount=-3
kerning first=81 second=7922 amount=-1
kerning first=86 second=198 amount=-3
kerning first=253 second=46 amount=-2
kerning first=212 second=65 amount=-1
kerning first=84 second=46 amount=-3
kerning first=7922 second=198 amount=-3
kerning first=212 second=84 amount=-1
kerning first=192 second=84 amount=-2
kerning first=221 second=245 amount=-3
kerning first=193 second=211 amount=-1
kerning first=211 second=88 amount=-1
kerning first=86 second=211 amount=-1
kerning first=7922 second=194 amount=-2
kerning first=84 second=115 amount=-2
kerning first=86 second=114 amount=-1
kerning first=65 second=217 amount=-1
kerning first=76 second=71 amount=-1
kerning first=86 second=97 amount=-2
kerning first=101 second=39 amount=-2
kerning first=7922 second=250 amount=-2
kerning first=71 second=88 amount=-1
kerning first=89 second=112 amount=-2
kerning first=82 second=231 amount=-1
kerning first=114 second=122 amount=1
kerning first=79 second=195 amount=-1
kerning first=107 second=101 amount=-1
kerning first=81 second=87 amount=-1
kerning first=107 second=232 amount=-1
kerning first=7922 second=101 amount=-3
kerning first=193 second=84 amount=-2
kerning first=7922 second=232 amount=-3
kerning first=213 second=221 amount=-1
kerning first=86 second=84 amount=1
kerning first=80 second=74 amount=-2
kerning first=86 second=242 amount=-2
kerning first=121 second=44 amount=-1
kerning first=222 second=44 amount=-5
kerning first=221 second=65 amount=-2
kerning first=361 second=34 amount=-1
kerning first=86 second=227 amount=-2
kerning first=80 second=258 amount=-2
kerning first=89 second=199 amount=-1
kerning first=68 second=195 amount=-1
kerning first=81 second=46 amount=-2
kerning first=84 second=331 amount=-3
kerning first=89 second=192 amount=-2
kerning first=221 second=361 amount=-2
kerning first=222 second=244 amount=-1
kerning first=107 second=243 amount=-1
kerning first=74 second=194 amount=-1
kerning first=89 second=211 amount=-1
kerning first=201 second=74 amount=1
kerning first=74 second=44 amount=-1
kerning first=258 second=119 amount=-1
kerning first=65 second=71 amount=-1
kerning first=7922 second=243 amount=-3
kerning first=213 second=88 amount=-1
kerning first=222 second=234 amount=-1
kerning first=81 second=193 amount=-1
kerning first=75 second=242 amount=-1
kerning first=216 second=90 amount=-1
kerning first=211 second=86 amount=-1
kerning first=194 second=218 amount=-1
kerning first=89 second=99 amount=-3
kerning first=76 second=217 amount=-1
kerning first=102 second=59 amount=1
kerning first=361 second=39 amount=-1
kerning first=67 second=210 amount=-1
kerning first=216 second=7922 amount=-1
kerning first=70 second=46 amount=-2
kerning first=193 second=67 amount=-1
kerning first=83 second=116 amount=-1
kerning first=86 second=67 amount=-1
kerning first=222 second=101 amount=-1
kerning first=89 second=361 amount=-2
kerning first=84 second=122 amount=-2
kerning first=213 second=86 amount=-1
kerning first=360 second=193 amount=-1
kerning first=221 second=234 amount=-3
kerning first=80 second=227 amount=-1
kerning first=202 second=74 amount=1
kerning first=75 second=216 amount=-1
kerning first=222 second=233 amount=-1
kerning first=84 second=297 amount=2
kerning first=118 second=44 amount=-2
kerning first=195 second=255 amount=-1
kerning first=199 second=81 amount=-1
kerning first=71 second=7923 amount=-1
kerning first=81 second=90 amount=-1
kerning first=193 second=121 amount=-1
kerning first=68 second=194 amount=-1
kerning first=212 second=258 amount=-1
kerning first=67 second=199 amount=-1
kerning first=258 second=218 amount=-1
kerning first=193 second=119 amount=-1
kerning first=99 second=221 amount=-1
kerning first=7922 second=231 amount=-3
kerning first=101 second=34 amount=-2
kerning first=74 second=74 amount=-1
kerning first=258 second=89 amount=-2
kerning first=86 second=65 amount=-2
kerning first=7922 second=113 amount=-3
kerning first=67 second=211 amount=-1
kerning first=118 second=230 amount=-1
kerning first=79 second=194 amount=-1
kerning first=193 second=216 amount=-1
kerning first=86 second=249 amount=-1
kerning first=89 second=97 amount=-3
kerning first=114 second=7923 amount=1
kerning first=86 second=216 amount=-1
kerning first=89 second=109 amount=-2
kerning first=84 second=195 amount=-2
kerning first=114 second=102 amount=1
kerning first=107 second=44 amount=1
kerning first=194 second=255 amount=-1
kerning first=84 second=255 amount=-2
kerning first=89 second=242 amount=-3
kerning first=89 second=226 amount=-3
kerning first=66 second=84 amount=-1
kerning first=200 second=74 amount=1
kerning first=7922 second=44 amount=-3
kerning first=71 second=86 amount=-1
kerning first=84 second=225 amount=-3
kerning first=107 second=59 amount=1
kerning first=221 second=258 amount=-2
kerning first=84 second=193 amount=-2
kerning first=118 second=224 amount=-1
kerning first=222 second=103 amount=-1
kerning first=99 second=74 amount=1
kerning first=7922 second=224 amount=-3
kerning first=75 second=210 amount=-1
kerning first=121 second=46 amount=-2
kerning first=84 second=213 amount=-1
kerning first=89 second=273 amount=-3
kerning first=194 second=85 amount=-1
kerning first=87 second=193 amount=-1
kerning first=195 second=211 amount=-1
kerning first=195 second=253 amount=-1
kerning first=195 second=7922 amount=-2
kerning first=258 second=67 amount=-1
kerning first=210 second=7922 amount=-1
kerning first=7922 second=230 amount=-3
kerning first=89 second=233 amount=-3
kerning first=222 second=227 amount=-1
kerning first=87 second=259 amount=-1
kerning first=7922 second=81 amount=-1
kerning first=87 second=195 amount=-1
kerning first=195 second=90 amount=1
kerning first=210 second=90 amount=-1
kerning first=88 second=74 amount=1
kerning first=70 second=297 amount=1
kerning first=84 second=112 amount=-3
kerning first=68 second=44 amount=-2
kerning first=258 second=121 amount=-1
kerning first=83 second=121 amount=-1
kerning first=76 second=218 amount=-1
kerning first=84 second=117 amount=-3
kerning first=89 second=117 amount=-2
kerning first=222 second=74 amount=-2
kerning first=7922 second=103 amount=-3
kerning first=222 second=245 amount=-1
kerning first=107 second=103 amount=-1
kerning first=86 second=210 amount=-1
kerning first=193 second=210 amount=-1
kerning first=82 second=244 amount=-1
kerning first=192 second=89 amount=-2
kerning first=212 second=89 amount=-1
kerning first=222 second=231 amount=-1
kerning first=195 second=85 amount=-1
kerning first=194 second=7922 amount=-2
kerning first=195 second=217 amount=-1
kerning first=221 second=67 amount=-1
kerning first=218 second=192 amount=-1
kerning first=84 second=7922 amount=1
kerning first=39 second=114 amount=-1
kerning first=79 second=88 amount=-1
kerning first=87 second=245 amount=-1
kerning first=199 second=67 amount=-1
kerning first=211 second=194 amount=-1
kerning first=222 second=230 amount=-1
kerning first=66 second=221 amount=-1
kerning first=91 second=106 amount=3
kerning first=89 second=241 amount=-2
kerning first=221 second=192 amount=-2
kerning first=199 second=71 amount=-1
kerning first=87 second=100 amount=-1
kerning first=89 second=65 amount=-2
kerning first=221 second=216 amount=-1
kerning first=217 second=193 amount=-1
kerning first=80 second=111 amount=-1
kerning first=85 second=258 amount=-1
kerning first=217 second=195 amount=-1
kerning first=194 second=90 amount=1
