{
"skeleton": { "hash": "s+PMDEBII3abinT7r7s1NnajiNA", "spine": "3.6.53", "width": 281.23, "height": 311.19, "images": "" },
"bones": [
	{ "name": "root", "x": -177.52, "y": -3.36 },
	{ "name": "bone", "parent": "root", "length": 114.81, "rotation": 88.08, "x": 180.04, "y": 45.54 },
	{ "name": "bone2", "parent": "bone", "length": 50.12, "rotation": 67.32, "x": 81.36, "y": 47.22 },
	{ "name": "bone3", "parent": "bone", "length": 86.82, "rotation": -17.66, "x": 103.5, "y": 9.51 },
	{ "name": "bone4", "parent": "bone3", "length": 27.47, "rotation": -72.71, "x": 92.38, "y": -43.47 },
	{ "name": "bone5", "parent": "bone3", "length": 39.3, "rotation": 68.55, "x": 90.64, "y": 43.31 },
	{ "name": "bone6", "parent": "bone3", "x": 66.52, "y": -18.29 },
	{ "name": "bone7", "parent": "bone3", "x": 65.35, "y": 14.5 },
	{ "name": "bone8", "parent": "bone2", "x": 110.71, "y": -95.43 },
	{ "name": "bone9", "parent": "bone2", "x": 99.88, "y": -103.41 }
],
"slots": [
	{ "name": "bone", "bone": "bone", "attachment": "bong" },
	{ "name": "bong", "bone": "root" },
	{ "name": "board2", "bone": "bone2", "attachment": "board" },
	{ "name": "board", "bone": "root" },
	{ "name": "Learn2", "bone": "bone9", "attachment": "Learn" },
	{ "name": "Learn", "bone": "root" },
	{ "name": "Challenge2", "bone": "bone8", "attachment": "Challenge" },
	{ "name": "Challenge", "bone": "root" },
	{ "name": "body2", "bone": "bone", "attachment": "body" },
	{ "name": "body", "bone": "root" },
	{ "name": "tai trai2", "bone": "bone5", "attachment": "tai trai" },
	{ "name": "tai trai", "bone": "root" },
	{ "name": "tai phai2", "bone": "bone4", "attachment": "tai phai" },
	{ "name": "tai phai", "bone": "root" },
	{ "name": "dau2", "bone": "bone3", "attachment": "dau" },
	{ "name": "dau", "bone": "root" },
	{ "name": "mat trai2", "bone": "bone7", "attachment": "mat trai" },
	{ "name": "mat trai", "bone": "root" },
	{ "name": "mat phai2", "bone": "bone6", "attachment": "mat phai" },
	{ "name": "mat phai", "bone": "root" }
],
"skins": {
	"default": {
		"Challenge2": {
			"Challenge": { "x": -5.91, "y": -2.38, "rotation": -155.4, "width": 140, "height": 32 }
		},
		"Learn2": {
			"Learn": { "color": "ff2c2cff", "x": 11.58, "y": 10.3, "rotation": -155.4, "width": 108, "height": 33 }
		},
		"board2": {
			"board": { "x": 79.97, "y": -51.99, "rotation": -155.27, "width": 169, "height": 204 }
		},
		"body2": {
			"body": { "x": 41.28, "y": 50.95, "rotation": -87.95, "width": 245, "height": 171 }
		},
		"bone": {
			"bong": { "x": -31.67, "y": 3.49, "rotation": -88.08, "width": 117, "height": 28 }
		},
		"dau2": {
			"dau": { "x": 50.43, "y": -5.41, "rotation": -70.42, "width": 130, "height": 156 }
		},
		"mat phai2": {
			"mat phai": { "y": -1.03, "rotation": -70.42, "width": 17, "height": 25 }
		},
		"mat trai2": {
			"mat trai": { "x": -1.21, "y": -1.77, "rotation": -70.42, "width": 17, "height": 24 }
		},
		"tai phai2": {
			"tai phai": { "x": 16.57, "y": 0.39, "rotation": 2.29, "width": 37, "height": 35 }
		},
		"tai trai2": {
			"tai trai": { "x": 19.1, "y": 1.01, "rotation": -138.96, "width": 57, "height": 48 }
		}
	}
},
"animations": {
	"animation": {
		"bones": {
			"bone2": {
				"rotate": [
					{ "time": 0, "angle": 10.78 },
					{ "time": 0.3333, "angle": -51.57 },
					{ "time": 0.6667, "angle": 10.78, "curve": "stepped" },
					{ "time": 1.6667, "angle": 10.78, "curve": "stepped" },
					{ "time": 1.8333, "angle": 10.78 },
					{ "time": 2.1667, "angle": -51.57 },
					{ "time": 2.5, "angle": 10.78, "curve": "stepped" },
					{ "time": 3.3333, "angle": 10.78 }
				]
			},
			"bone8": {
				"scale": [
					{ "time": 0, "x": 0, "y": 0, "curve": "stepped" },
					{ "time": 0.3333, "x": 0, "y": 0 },
					{ "time": 0.3667, "x": 1, "y": 1, "curve": "stepped" },
					{ "time": 1.8333, "x": 1, "y": 1 },
					{ "time": 1.9, "x": 0, "y": 0 }
				]
			},
			"bone9": {
				"scale": [
					{ "time": 0, "x": 0, "y": 0, "curve": "stepped" },
					{ "time": 2, "x": 0, "y": 0 },
					{ "time": 2.1667, "x": 1, "y": 1 }
				]
			},
			"bone3": {
				"rotate": [
					{ "time": 0, "angle": 14.88 },
					{ "time": 0.3333, "angle": -8.56 },
					{ "time": 0.6667, "angle": 3.05 },
					{ "time": 1.1667, "angle": 9.2 },
					{ "time": 2, "angle": 3.05 },
					{ "time": 2.1667, "angle": -17.8 },
					{ "time": 2.5, "angle": 3.05 },
					{ "time": 3, "angle": 12.36 },
					{ "time": 3.3333, "angle": 14.88 }
				],
				"translate": [
					{ "time": 0, "x": 0, "y": 0, "curve": "stepped" },
					{ "time": 3.3333, "x": 0, "y": 0 }
				]
			},
			"bone5": {
				"rotate": [
					{ "time": 0, "angle": 0 },
					{ "time": 0.6667, "angle": 23.65 },
					{ "time": 1.3333, "angle": -7.96 },
					{ "time": 2, "angle": 0 },
					{ "time": 2.6667, "angle": 23.65 },
					{ "time": 3.3333, "angle": -7.96 }
				],
				"translate": [
					{ "time": 0, "x": -2.14, "y": -5.45, "curve": "stepped" },
					{ "time": 2, "x": -2.14, "y": -5.45 }
				]
			},
			"bone4": {
				"rotate": [
					{ "time": 0, "angle": 0 },
					{ "time": 0.6667, "angle": -29.8 },
					{ "time": 1.3333, "angle": 26.71 },
					{ "time": 2, "angle": 0 },
					{ "time": 2.6667, "angle": -29.8 },
					{ "time": 3.3333, "angle": 26.71 }
				]
			},
			"bone7": {
				"rotate": [
					{ "time": 0, "angle": 0, "curve": "stepped" },
					{ "time": 0.8333, "angle": 0, "curve": "stepped" },
					{ "time": 1.6667, "angle": 0, "curve": "stepped" },
					{ "time": 2.6667, "angle": 0 }
				],
				"translate": [
					{ "time": 0, "x": 0, "y": 0, "curve": "stepped" },
					{ "time": 0.8333, "x": 0, "y": 0, "curve": "stepped" },
					{ "time": 1.6667, "x": 0, "y": 0, "curve": "stepped" },
					{ "time": 2.6667, "x": 0, "y": 0 }
				],
				"scale": [
					{ "time": 0, "x": 1, "y": 1, "curve": "stepped" },
					{ "time": 0.2667, "x": 1, "y": 1 },
					{ "time": 0.4, "x": 0, "y": 0 },
					{ "time": 0.5, "x": 1, "y": 1, "curve": "stepped" },
					{ "time": 0.8333, "x": 1, "y": 1, "curve": "stepped" },
					{ "time": 1.2667, "x": 1, "y": 1 },
					{ "time": 1.4, "x": 0, "y": 0 },
					{ "time": 1.5, "x": 1, "y": 1, "curve": "stepped" },
					{ "time": 1.6667, "x": 1, "y": 1, "curve": "stepped" },
					{ "time": 2.1, "x": 1, "y": 1 },
					{ "time": 2.2333, "x": 0, "y": 0 },
					{ "time": 2.3333, "x": 1, "y": 1, "curve": "stepped" },
					{ "time": 2.6667, "x": 1, "y": 1, "curve": "stepped" },
					{ "time": 3.1667, "x": 1, "y": 1 },
					{ "time": 3.2667, "x": 0, "y": 0 },
					{ "time": 3.3333, "x": 1, "y": 1 }
				]
			},
			"bone6": {
				"rotate": [
					{ "time": 0, "angle": 0, "curve": "stepped" },
					{ "time": 0.8333, "angle": 0, "curve": "stepped" },
					{ "time": 1.6667, "angle": 0, "curve": "stepped" },
					{ "time": 2.6667, "angle": 0 }
				],
				"translate": [
					{ "time": 0, "x": 0, "y": 0, "curve": "stepped" },
					{ "time": 0.8333, "x": 0, "y": 0, "curve": "stepped" },
					{ "time": 1.6667, "x": 0, "y": 0, "curve": "stepped" },
					{ "time": 2.6667, "x": 0, "y": 0 }
				],
				"scale": [
					{ "time": 0, "x": 1, "y": 1, "curve": "stepped" },
					{ "time": 0.2667, "x": 1, "y": 1 },
					{ "time": 0.4, "x": 0, "y": 0 },
					{ "time": 0.5, "x": 1, "y": 1, "curve": "stepped" },
					{ "time": 0.8333, "x": 1, "y": 1, "curve": "stepped" },
					{ "time": 1.2667, "x": 1, "y": 1 },
					{ "time": 1.4, "x": 0, "y": 0 },
					{ "time": 1.5, "x": 1, "y": 1, "curve": "stepped" },
					{ "time": 1.6667, "x": 1, "y": 1, "curve": "stepped" },
					{ "time": 2.1, "x": 1, "y": 1 },
					{ "time": 2.2333, "x": 0, "y": 0 },
					{ "time": 2.3333, "x": 1, "y": 1, "curve": "stepped" },
					{ "time": 2.6667, "x": 1, "y": 1, "curve": "stepped" },
					{ "time": 3.1667, "x": 1, "y": 1 },
					{ "time": 3.2667, "x": 0, "y": 0 },
					{ "time": 3.3333, "x": 1, "y": 1 }
				]
			}
		}
	}
}
}