{
"skeleton": { "hash": "sV9u1mH4q3hOOK0QDyHegrWtZC4", "spine": "3.6.48", "width": 392, "height": 402, "images": "" },
"bones": [
	{ "name": "root", "x": -0.94, "y": 191.43 },
	{ "name": "bone", "parent": "root", "length": 181.2, "rotation": 89.74, "x": 350.98, "y": -190.98 },
	{ "name": "bone2", "parent": "bone", "length": 289.75, "rotation": 0.43, "x": 56, "y": 350.96 },
	{ "name": "bone3", "parent": "bone2", "x": 224.78, "y": -12.52 },
	{ "name": "bone4", "parent": "bone2", "length": 61.59, "rotation": -60.18, "x": 240.99, "y": -85.93 },
	{ "name": "bone5", "parent": "bone2", "length": 43.97, "rotation": 48.15, "x": 267.44, "y": 15.06 },
	{ "name": "bone6", "parent": "bone2", "length": 62.43, "rotation": 46.83, "x": 231.13, "y": 54.15 },
	{ "name": "bone7", "parent": "bone2", "length": 97.74, "rotation": 38.87, "x": 113.58, "y": -149.69 },
	{ "name": "bone8", "parent": "bone2", "length": 119.56, "rotation": -68.77, "x": 162.16, "y": 154.38 },
	{ "name": "bone9", "parent": "bone2", "length": 76.25, "rotation": -21.82, "x": 112.98, "y": 7.06 }
],
"slots": [
	{ "name": "body2", "bone": "bone2", "attachment": "body" },
	{ "name": "body", "bone": "root" },
	{ "name": "mieng2", "bone": "bone9", "attachment": "mieng" },
	{ "name": "mieng", "bone": "root" },
	{ "name": "mat2", "bone": "bone3", "attachment": "mat" },
	{ "name": "mat", "bone": "root" },
	{ "name": "nuoc mat 4", "bone": "bone4", "attachment": "nuoc mat 1" },
	{ "name": "nuoc mat 1", "bone": "root" },
	{ "name": "nuoc mat 6", "bone": "bone6", "attachment": "nuoc mat 3" },
	{ "name": "nuoc mat 3", "bone": "root" },
	{ "name": "nuoc mat 5", "bone": "bone5", "attachment": "nuoc mat 2" },
	{ "name": "nuoc mat 2", "bone": "root" },
	{ "name": "tay trai2", "bone": "bone8", "attachment": "tay trai" },
	{ "name": "tay trai", "bone": "root" },
	{ "name": "tay phai2", "bone": "bone7", "attachment": "tay phai" },
	{ "name": "tay phai", "bone": "root" }
],
"skins": {
	"default": {
		"body2": {
			"body": { "x": 141.32, "y": -0.5, "rotation": -90.17, "width": 392, "height": 402 }
		},
		"mat2": {
			"mat": { "x": -1.97, "y": 11.28, "rotation": -90.17, "width": 137, "height": 55 }
		},
		"mieng2": {
			"mieng": { "x": -1.34, "y": 4.33, "rotation": -68.35, "width": 144, "height": 168 }
		},
		"nuoc mat 4": {
			"nuoc mat 1": { "x": 33.29, "y": -0.06, "rotation": -29.98, "width": 72, "height": 49 }
		},
		"nuoc mat 5": {
			"nuoc mat 2": { "x": 24.79, "y": 0.09, "rotation": -138.31, "width": 49, "height": 43 }
		},
		"nuoc mat 6": {
			"nuoc mat 3": { "x": 36.46, "y": 2.08, "rotation": -137, "width": 66, "height": 58 }
		},
		"tay phai2": {
			"tay phai": { "x": 46.73, "y": 2.36, "rotation": -129.04, "width": 100, "height": 115 }
		},
		"tay trai2": {
			"tay trai": { "x": 58.61, "y": -17.48, "rotation": -21.39, "width": 146, "height": 105 }
		}
	}
},
"animations": {
	"animation": {
		"bones": {
			"bone7": {
				"rotate": [
					{ "time": 0, "angle": 0 },
					{ "time": 0.5, "angle": -35.15 },
					{ "time": 1, "angle": 22.11 },
					{ "time": 1.5, "angle": -35.15 },
					{ "time": 2, "angle": 0 }
				]
			},
			"bone8": {
				"rotate": [
					{ "time": 0, "angle": 0 },
					{ "time": 0.5, "angle": -25.3 },
					{ "time": 1, "angle": 25.7 },
					{ "time": 1.5, "angle": -29.99 },
					{ "time": 2, "angle": 0 }
				]
			},
			"bone9": {
				"rotate": [
					{ "time": 0, "angle": 0, "curve": "stepped" },
					{ "time": 2, "angle": 0 }
				],
				"translate": [
					{ "time": 0, "x": 0, "y": 0, "curve": "stepped" },
					{ "time": 2, "x": 0, "y": 0 }
				],
				"scale": [
					{ "time": 0, "x": 1, "y": 1 },
					{ "time": 0.5, "x": 0.677, "y": 1 },
					{ "time": 1, "x": 0.392, "y": 0.537 },
					{ "time": 1.5, "x": 0.677, "y": 1.051 },
					{ "time": 2, "x": 1, "y": 1 }
				],
				"shear": [
					{ "time": 0, "x": 0, "y": 0, "curve": "stepped" },
					{ "time": 2, "x": 0, "y": 0 }
				]
			},
			"bone3": {
				"rotate": [
					{ "time": 0, "angle": 0, "curve": "stepped" },
					{ "time": 2, "angle": 0 }
				],
				"translate": [
					{ "time": 0, "x": 0, "y": 0, "curve": "stepped" },
					{ "time": 2, "x": 0, "y": 0 }
				],
				"scale": [
					{ "time": 0, "x": 1, "y": 1 },
					{ "time": 0.6667, "x": 1.873, "y": 1 },
					{ "time": 1.3333, "x": 0.581, "y": 0.989 },
					{ "time": 2, "x": 1, "y": 1 }
				],
				"shear": [
					{ "time": 0, "x": 0, "y": 0, "curve": "stepped" },
					{ "time": 2, "x": 0, "y": 0 }
				]
			},
			"bone4": {
				"rotate": [
					{ "time": 0, "angle": 0, "curve": "stepped" },
					{ "time": 1, "angle": 0, "curve": "stepped" },
					{ "time": 2, "angle": 0 }
				],
				"translate": [
					{ "time": 0, "x": 0, "y": 0, "curve": "stepped" },
					{ "time": 1, "x": 0, "y": 0, "curve": "stepped" },
					{ "time": 2, "x": 0, "y": 0 }
				],
				"scale": [
					{ "time": 0, "x": 0, "y": 0 },
					{ "time": 0.5, "x": 1, "y": 1 },
					{ "time": 1, "x": 0, "y": 0 },
					{ "time": 1.5, "x": 1, "y": 1 },
					{ "time": 2, "x": 0, "y": 0 }
				],
				"shear": [
					{ "time": 0, "x": 0, "y": 0, "curve": "stepped" },
					{ "time": 1, "x": 0, "y": 0, "curve": "stepped" },
					{ "time": 2, "x": 0, "y": 0 }
				]
			},
			"bone5": {
				"rotate": [
					{ "time": 0, "angle": 0, "curve": "stepped" },
					{ "time": 1.3333, "angle": 0 }
				],
				"translate": [
					{ "time": 0, "x": 0, "y": 0, "curve": "stepped" },
					{ "time": 1.3333, "x": 0, "y": 0 }
				],
				"scale": [
					{ "time": 0, "x": 0, "y": 0 },
					{ "time": 0.8333, "x": 1, "y": 1 },
					{ "time": 1.3333, "x": 0, "y": 0 },
					{ "time": 1.8333, "x": 1, "y": 1 }
				],
				"shear": [
					{ "time": 0, "x": 0, "y": 0, "curve": "stepped" },
					{ "time": 1.3333, "x": 0, "y": 0 }
				]
			},
			"bone6": {
				"rotate": [
					{ "time": 0, "angle": 0 }
				],
				"translate": [
					{ "time": 0, "x": 0, "y": 0 }
				],
				"scale": [
					{ "time": 0, "x": 0, "y": 0 },
					{ "time": 0.5, "x": 1, "y": 1 },
					{ "time": 1.1667, "x": 0, "y": 0 },
					{ "time": 2, "x": 1, "y": 1 }
				],
				"shear": [
					{ "time": 0, "x": 0, "y": 0 }
				]
			},
			"bone2": {
				"rotate": [
					{ "time": 0, "angle": 0 },
					{ "time": 0.6667, "angle": 11.26 },
					{ "time": 1.3333, "angle": -9.79 },
					{ "time": 2, "angle": 0 }
				],
				"translate": [
					{ "time": 0, "x": 0, "y": 0, "curve": "stepped" },
					{ "time": 2, "x": 0, "y": 0 }
				],
				"scale": [
					{ "time": 0, "x": 1, "y": 1, "curve": "stepped" },
					{ "time": 2, "x": 1, "y": 1 }
				],
				"shear": [
					{ "time": 0, "x": 0, "y": 0, "curve": "stepped" },
					{ "time": 2, "x": 0, "y": 0 }
				]
			}
		}
	}
}
}